<?xml version="1.0" encoding="UTF-8" standalone="yes"?><svg xmlns="http://www.w3.org/2000/svg" width="140" height="140" viewBox="0 0 140 140" preserveAspectRatio="none"><!--
Source URL: holder.js/140x140
Created with Holder.js 2.6.0.
Learn more at http://holderjs.com
(c) 2012-2015 Ivan Malopinsky - http://imsky.co
--><defs><style type="text/css"><![CDATA[#holder_155970e99ad text { fill:#AAAAAA;font-weight:bold;font-family:Arial, Helvetica, Open Sans, sans-serif, monospace;font-size:10pt } ]]></style></defs><g id="holder_155970e99ad"><rect width="140" height="140" fill="#EEEEEE"/><g><text x="45.5" y="74.5">140x140</text></g></g></svg>